/Users/user1/Desktop/Mami/OOP64/ShapeProject/src/main/java/com/patchara/shapeproject/Shape.java
/Users/user1/Desktop/Mami/OOP64/ShapeProject/src/main/java/com/patchara/shapeproject/CircleFrame.java
/Users/user1/Desktop/Mami/OOP64/ShapeProject/src/main/java/com/patchara/shapeproject/Circle.java
